﻿名稱,負責弟兄1_SID,負責弟兄2_SID,交通時間,天
成功排,B12,B17,09:00:00,周六
光復排,B1,B20,09:00:00,周六
小東排,B7,B25,18:30:00,周三
自强排,B11,B21,18:30:00,周四
福音組,B17,B1,08:00:00,周六
管家組,B20,B7,08:00:00,周六
伙食組,B8,B26,07:40:00,周六
真理組,B15,B12,08:00:00,周六
聚會組,B3,B21,08:00:00,周六
資訊組,B17,B1,08:00:00,周六
